%YAML 1.1
%TAG !u! tag:unity3d.com,2011:
--- !u!1 &181308
GameObject:
  m_ObjectHideFlags: 0
  m_PrefabParentObject: {fileID: 0}
  m_PrefabInternal: {fileID: 100100000}
  serializedVersion: 5
  m_Component:
  - component: {fileID: 462532}
  - component: {fileID: 11488068}
  m_Layer: 0
  m_Name: ATL_Common
  m_TagString: Untagged
  m_Icon: {fileID: 0}
  m_NavMeshLayer: 0
  m_StaticEditorFlags: 0
  m_IsActive: 1
--- !u!4 &462532
Transform:
  m_ObjectHideFlags: 1
  m_PrefabParentObject: {fileID: 0}
  m_PrefabInternal: {fileID: 100100000}
  m_GameObject: {fileID: 181308}
  m_LocalRotation: {x: 0, y: 0, z: 0, w: 1}
  m_LocalPosition: {x: 0, y: 0, z: 0}
  m_LocalScale: {x: 1, y: 1, z: 1}
  m_Children: []
  m_Father: {fileID: 0}
  m_RootOrder: 0
  m_LocalEulerAnglesHint: {x: 0, y: 0, z: 0}
--- !u!114 &11488068
MonoBehaviour:
  m_ObjectHideFlags: 1
  m_PrefabParentObject: {fileID: 0}
  m_PrefabInternal: {fileID: 100100000}
  m_GameObject: {fileID: 181308}
  m_Enabled: 1
  m_EditorHideFlags: 0
  m_Script: {fileID: 11500000, guid: 4d0c51bb0b6e93049af5e88f93826e3b, type: 3}
  m_Name: 
  m_EditorClassIdentifier: 
  material: {fileID: 2100000, guid: 70cb6f8d4b48fcd49ad884d784707473, type: 2}
  mSprites:
  - name: UI_Bar_Levels
    x: 0
    y: 905
    width: 605
    height: 119
    borderLeft: 291
    borderRight: 93
    borderTop: 0
    borderBottom: 0
    paddingLeft: 0
    paddingRight: 0
    paddingTop: 0
    paddingBottom: 0
  - name: UI_Bar_Options
    x: 0
    y: 762
    width: 472
    height: 141
    borderLeft: 47
    borderRight: 46
    borderTop: 0
    borderBottom: 0
    paddingLeft: 0
    paddingRight: 0
    paddingTop: 0
    paddingBottom: 0
  - name: UI_Box_3px
    x: 1008
    y: 1005
    width: 3
    height: 3
    borderLeft: 1
    borderRight: 1
    borderTop: 1
    borderBottom: 1
    paddingLeft: 0
    paddingRight: 0
    paddingTop: 0
    paddingBottom: 0
  - name: UI_ClearText_Great
    x: 607
    y: 942
    width: 399
    height: 82
    borderLeft: 0
    borderRight: 0
    borderTop: 0
    borderBottom: 0
    paddingLeft: 0
    paddingRight: 0
    paddingTop: 0
    paddingBottom: 0
  - name: UI_HalfCircleBar
    x: 684
    y: 466
    width: 173
    height: 88
    borderLeft: 0
    borderRight: 0
    borderTop: 1
    borderBottom: 86
    paddingLeft: 0
    paddingRight: 0
    paddingTop: 0
    paddingBottom: 0
  - name: UI_Icon_AdBtn
    x: 859
    y: 447
    width: 135
    height: 107
    borderLeft: 0
    borderRight: 0
    borderTop: 0
    borderBottom: 0
    paddingLeft: 14
    paddingRight: 13
    paddingTop: 20
    paddingBottom: 17
  - name: UI_Icon_ArrowLR
    x: 323
    y: 45
    width: 57
    height: 84
    borderLeft: 0
    borderRight: 0
    borderTop: 0
    borderBottom: 0
    paddingLeft: 0
    paddingRight: 0
    paddingTop: 0
    paddingBottom: 0
  - name: UI_Icon_Back
    x: 821
    y: 648
    width: 144
    height: 112
    borderLeft: 0
    borderRight: 0
    borderTop: 0
    borderBottom: 0
    paddingLeft: 0
    paddingRight: 0
    paddingTop: 0
    paddingBottom: 0
  - name: UI_Icon_check
    x: 879
    y: 272
    width: 102
    height: 79
    borderLeft: 0
    borderRight: 0
    borderTop: 0
    borderBottom: 0
    paddingLeft: 0
    paddingRight: 0
    paddingTop: 0
    paddingBottom: 0
  - name: UI_Icon_Close
    x: 669
    y: 2
    width: 62
    height: 65
    borderLeft: 0
    borderRight: 0
    borderTop: 0
    borderBottom: 0
    paddingLeft: 0
    paddingRight: 0
    paddingTop: 0
    paddingBottom: 0
  - name: UI_Icon_HintGlass
    x: 412
    y: 186
    width: 118
    height: 118
    borderLeft: 0
    borderRight: 0
    borderTop: 0
    borderBottom: 0
    paddingLeft: 0
    paddingRight: 0
    paddingTop: 0
    paddingBottom: 0
  - name: UI_Icon_Loading
    x: 412
    y: 429
    width: 125
    height: 125
    borderLeft: 0
    borderRight: 0
    borderTop: 0
    borderBottom: 0
    paddingLeft: 0
    paddingRight: 0
    paddingTop: 0
    paddingBottom: 0
  - name: UI_Icon_Music
    x: 669
    y: 241
    width: 100
    height: 110
    borderLeft: 0
    borderRight: 0
    borderTop: 0
    borderBottom: 0
    paddingLeft: 0
    paddingRight: 0
    paddingTop: 0
    paddingBottom: 0
  - name: UI_Icon_Pause
    x: 669
    y: 135
    width: 93
    height: 104
    borderLeft: 0
    borderRight: 0
    borderTop: 0
    borderBottom: 0
    paddingLeft: 0
    paddingRight: 0
    paddingTop: 0
    paddingBottom: 0
  - name: UI_Icon_Play
    x: 916
    y: 785
    width: 105
    height: 118
    borderLeft: 0
    borderRight: 0
    borderTop: 0
    borderBottom: 0
    paddingLeft: 0
    paddingRight: 0
    paddingTop: 0
    paddingBottom: 0
  - name: UI_Icon_Rank
    x: 539
    y: 447
    width: 143
    height: 107
    borderLeft: 0
    borderRight: 0
    borderTop: 0
    borderBottom: 0
    paddingLeft: 0
    paddingRight: 0
    paddingTop: 0
    paddingBottom: 0
  - name: UI_Icon_RemoveAd
    x: 669
    y: 69
    width: 64
    height: 64
    borderLeft: 0
    borderRight: 0
    borderTop: 0
    borderBottom: 0
    paddingLeft: 0
    paddingRight: 0
    paddingTop: 0
    paddingBottom: 0
  - name: UI_Icon_Replay
    x: 677
    y: 640
    width: 142
    height: 120
    borderLeft: 0
    borderRight: 0
    borderTop: 0
    borderBottom: 0
    paddingLeft: 0
    paddingRight: 0
    paddingTop: 0
    paddingBottom: 0
  - name: UI_Icon_Settings
    x: 544
    y: 628
    width: 131
    height: 132
    borderLeft: 0
    borderRight: 0
    borderTop: 0
    borderBottom: 0
    paddingLeft: 0
    paddingRight: 0
    paddingTop: 0
    paddingBottom: 0
  - name: UI_Icon_Shop
    x: 539
    y: 338
    width: 128
    height: 107
    borderLeft: 0
    borderRight: 0
    borderTop: 0
    borderBottom: 0
    paddingLeft: 0
    paddingRight: 0
    paddingTop: 0
    paddingBottom: 0
  - name: UI_Icon_Sound
    x: 539
    y: 123
    width: 120
    height: 96
    borderLeft: 0
    borderRight: 0
    borderTop: 0
    borderBottom: 0
    paddingLeft: 0
    paddingRight: 0
    paddingTop: 0
    paddingBottom: 0
  - name: UI_Icon_Stages
    x: 771
    y: 252
    width: 106
    height: 99
    borderLeft: 0
    borderRight: 0
    borderTop: 0
    borderBottom: 0
    paddingLeft: 0
    paddingRight: 0
    paddingTop: 0
    paddingBottom: 0
  - name: UI_Icon_Star
    x: 412
    y: 306
    width: 124
    height: 121
    borderLeft: 0
    borderRight: 0
    borderTop: 0
    borderBottom: 0
    paddingLeft: 0
    paddingRight: 0
    paddingTop: 0
    paddingBottom: 0
  - name: UI_Icon_Sushi
    x: 669
    y: 353
    width: 136
    height: 92
    borderLeft: 0
    borderRight: 0
    borderTop: 0
    borderBottom: 0
    paddingLeft: 0
    paddingRight: 0
    paddingTop: 0
    paddingBottom: 0
  - name: UI_Icon_Undo
    x: 412
    y: 73
    width: 119
    height: 111
    borderLeft: 0
    borderRight: 0
    borderTop: 0
    borderBottom: 0
    paddingLeft: 0
    paddingRight: 0
    paddingTop: 0
    paddingBottom: 0
  - name: UI_Icon_Yes
    x: 807
    y: 374
    width: 168
    height: 71
    borderLeft: 0
    borderRight: 0
    borderTop: 0
    borderBottom: 0
    paddingLeft: 0
    paddingRight: 0
    paddingTop: 0
    paddingBottom: 0
  - name: UI_Ingame_Top_Cloud01
    x: 748
    y: 913
    width: 29
    height: 27
    borderLeft: 13
    borderRight: 13
    borderTop: 0
    borderBottom: 0
    paddingLeft: 0
    paddingRight: 0
    paddingTop: 0
    paddingBottom: 0
  - name: UI_Ingame_Top_Cloud02
    x: 779
    y: 913
    width: 29
    height: 27
    borderLeft: 12
    borderRight: 15
    borderTop: 0
    borderBottom: 0
    paddingLeft: 0
    paddingRight: 0
    paddingTop: 0
    paddingBottom: 0
  - name: UI_Ingame_Top_Cloud03
    x: 810
    y: 927
    width: 32
    height: 13
    borderLeft: 15
    borderRight: 15
    borderTop: 0
    borderBottom: 0
    paddingLeft: 0
    paddingRight: 0
    paddingTop: 0
    paddingBottom: 0
  - name: UI_Ingame_Top_Light
    x: 0
    y: 25
    width: 136
    height: 132
    borderLeft: 83
    borderRight: 51
    borderTop: 63
    borderBottom: 63
    paddingLeft: 0
    paddingRight: 0
    paddingTop: 0
    paddingBottom: 0
  - name: UI_Mini_Btn_Blue
    x: 539
    y: 221
    width: 114
    height: 115
    borderLeft: 0
    borderRight: 0
    borderTop: 0
    borderBottom: 0
    paddingLeft: 0
    paddingRight: 0
    paddingTop: 0
    paddingBottom: 0
  - name: UI_Pop_Btn_Darkblue
    x: 138
    y: 2
    width: 41
    height: 56
    borderLeft: 19
    borderRight: 19
    borderTop: 18
    borderBottom: 35
    paddingLeft: 0
    paddingRight: 0
    paddingTop: 0
    paddingBottom: 0
  - name: UI_Pop_Btn_Violet
    x: 364
    y: 334
    width: 41
    height: 55
    borderLeft: 19
    borderRight: 19
    borderTop: 18
    borderBottom: 35
    paddingLeft: 0
    paddingRight: 0
    paddingTop: 0
    paddingBottom: 0
  - name: UI_PopBG_Orange
    x: 206
    y: 219
    width: 156
    height: 170
    borderLeft: 76
    borderRight: 76
    borderTop: 83
    borderBottom: 83
    paddingLeft: 0
    paddingRight: 0
    paddingTop: 0
    paddingBottom: 0
  - name: UI_PopBG_Red
    x: 206
    y: 391
    width: 164
    height: 168
    borderLeft: 79
    borderRight: 79
    borderTop: 81
    borderBottom: 81
    paddingLeft: 0
    paddingRight: 0
    paddingTop: 0
    paddingBottom: 0
  - name: UI_RoundBox14px
    x: 676
    y: 910
    width: 30
    height: 30
    borderLeft: 14
    borderRight: 14
    borderTop: 14
    borderBottom: 14
    paddingLeft: 0
    paddingRight: 0
    paddingTop: 0
    paddingBottom: 0
  - name: UI_RoundBox18px
    x: 364
    y: 294
    width: 40
    height: 38
    borderLeft: 18
    borderRight: 18
    borderTop: 18
    borderBottom: 18
    paddingLeft: 0
    paddingRight: 0
    paddingTop: 0
    paddingBottom: 0
  - name: UI_RoundBox8px
    x: 412
    y: 7
    width: 64
    height: 64
    borderLeft: 28
    borderRight: 28
    borderTop: 28
    borderBottom: 28
    paddingLeft: 0
    paddingRight: 0
    paddingTop: 0
    paddingBottom: 0
  - name: UI_RoundBoxLineBold18px
    x: 677
    y: 593
    width: 47
    height: 45
    borderLeft: 22
    borderRight: 22
    borderTop: 21
    borderBottom: 21
    paddingLeft: 0
    paddingRight: 0
    paddingTop: 0
    paddingBottom: 0
  - name: UI_RoundLine_9px
    x: 1008
    y: 1015
    width: 12
    height: 9
    borderLeft: 5
    borderRight: 5
    borderTop: 0
    borderBottom: 0
    paddingLeft: 0
    paddingRight: 0
    paddingTop: 0
    paddingBottom: 0
  - name: UI_StageBox_Gift
    x: 770
    y: 765
    width: 144
    height: 138
    borderLeft: 0
    borderRight: 0
    borderTop: 0
    borderBottom: 0
    paddingLeft: 0
    paddingRight: 0
    paddingTop: 0
    paddingBottom: 0
  - name: UI_StageBox_Lock
    x: 412
    y: 590
    width: 130
    height: 170
    borderLeft: 0
    borderRight: 0
    borderTop: 0
    borderBottom: 0
    paddingLeft: 0
    paddingRight: 0
    paddingTop: 0
    paddingBottom: 0
  - name: UI_StageBox_Stage
    x: 622
    y: 765
    width: 146
    height: 138
    borderLeft: 0
    borderRight: 0
    borderTop: 0
    borderBottom: 0
    paddingLeft: 0
    paddingRight: 0
    paddingTop: 0
    paddingBottom: 0
  - name: UI_StageBox_StageCleared
    x: 474
    y: 765
    width: 146
    height: 138
    borderLeft: 0
    borderRight: 0
    borderTop: 0
    borderBottom: 0
    paddingLeft: 0
    paddingRight: 0
    paddingTop: 0
    paddingBottom: 0
  - name: UI_StageBox_Star
    x: 323
    y: 2
    width: 47
    height: 41
    borderLeft: 0
    borderRight: 0
    borderTop: 0
    borderBottom: 0
    paddingLeft: 0
    paddingRight: 0
    paddingTop: 0
    paddingBottom: 0
  - name: UI_StageBox_StarBase
    x: 726
    y: 597
    width: 47
    height: 41
    borderLeft: 0
    borderRight: 0
    borderTop: 0
    borderBottom: 0
    paddingLeft: 0
    paddingRight: 0
    paddingTop: 0
    paddingBottom: 0
  - name: UI_Star
    x: 539
    y: 17
    width: 108
    height: 104
    borderLeft: 0
    borderRight: 0
    borderTop: 0
    borderBottom: 0
    paddingLeft: 0
    paddingRight: 0
    paddingTop: 0
    paddingBottom: 0
  - name: UI_Title_Btn_Blue
    x: 206
    y: 561
    width: 204
    height: 199
    borderLeft: 0
    borderRight: 0
    borderTop: 0
    borderBottom: 0
    paddingLeft: 0
    paddingRight: 0
    paddingTop: 0
    paddingBottom: 0
  - name: UI_Title_Btn_Green
    x: 0
    y: 159
    width: 204
    height: 199
    borderLeft: 0
    borderRight: 0
    borderTop: 0
    borderBottom: 0
    paddingLeft: 0
    paddingRight: 0
    paddingTop: 0
    paddingBottom: 0
  - name: UI_Title_Btn_Orange
    x: 0
    y: 360
    width: 204
    height: 199
    borderLeft: 0
    borderRight: 0
    borderTop: 0
    borderBottom: 0
    paddingLeft: 0
    paddingRight: 0
    paddingTop: 0
    paddingBottom: 0
  - name: UI_Title_Btn_Red
    x: 0
    y: 561
    width: 204
    height: 199
    borderLeft: 0
    borderRight: 0
    borderTop: 0
    borderBottom: 0
    paddingLeft: 0
    paddingRight: 0
    paddingTop: 0
    paddingBottom: 0
  - name: UI_Title_Outdeco
    x: 323
    y: 131
    width: 77
    height: 86
    borderLeft: 72
    borderRight: 2
    borderTop: 80
    borderBottom: 2
    paddingLeft: 0
    paddingRight: 0
    paddingTop: 0
    paddingBottom: 0
  - name: UI_Title_Outdeco_Line3px
    x: 1008
    y: 1010
    width: 11
    height: 3
    borderLeft: 0
    borderRight: 0
    borderTop: 1
    borderBottom: 1
    paddingLeft: 0
    paddingRight: 0
    paddingTop: 0
    paddingBottom: 0
  - name: UI_Title_PaperBG
    x: 607
    y: 906
    width: 67
    height: 34
    borderLeft: 32
    borderRight: 32
    borderTop: 1
    borderBottom: 31
    paddingLeft: 0
    paddingRight: 0
    paddingTop: 0
    paddingBottom: 0
  - name: UI_Title_PaperTop_BG
    x: 708
    y: 918
    width: 38
    height: 22
    borderLeft: 18
    borderRight: 17
    borderTop: 2
    borderBottom: 18
    paddingLeft: 0
    paddingRight: 0
    paddingTop: 0
    paddingBottom: 0
  - name: UI_Title_Topbar
    x: 412
    y: 556
    width: 500
    height: 32
    borderLeft: 0
    borderRight: 0
    borderTop: 0
    borderBottom: 0
    paddingLeft: 0
    paddingRight: 0
    paddingTop: 0
    paddingBottom: 0
  - name: UI_TopHeader_Bg_Red
    x: 206
    y: 14
    width: 115
    height: 203
    borderLeft: 2
    borderRight: 108
    borderTop: 0
    borderBottom: 0
    paddingLeft: 0
    paddingRight: 0
    paddingTop: 0
    paddingBottom: 0
  - name: UI_TutoHand
    x: 138
    y: 60
    width: 60
    height: 97
    borderLeft: 0
    borderRight: 0
    borderTop: 0
    borderBottom: 0
    paddingLeft: 0
    paddingRight: 0
    paddingTop: 0
    paddingBottom: 0
  mPixelSize: 1
  mReplacement: {fileID: 0}
  mCoordinates: 0
  sprites: []
--- !u!1001 &100100000
Prefab:
  m_ObjectHideFlags: 1
  serializedVersion: 2
  m_Modification:
    m_TransformParent: {fileID: 0}
    m_Modifications: []
    m_RemovedComponents: []
  m_ParentPrefab: {fileID: 0}
  m_RootGameObject: {fileID: 181308}
  m_IsPrefabParent: 1
